{
  "main.css": "/static/css/main.d566ab46.chunk.css",
  "main.js": "/static/js/main.b31b7cc1.chunk.js",
  "main.js.map": "/static/js/main.b31b7cc1.chunk.js.map",
  "runtime~main.js": "/static/js/runtime~main.d53d57e4.js",
  "runtime~main.js.map": "/static/js/runtime~main.d53d57e4.js.map",
  "static/js/2.2144e405.chunk.js": "/static/js/2.2144e405.chunk.js",
  "static/js/2.2144e405.chunk.js.map": "/static/js/2.2144e405.chunk.js.map",
  "index.html": "/index.html",
  "precache-manifest.ed17afd2347cda9baff0119928b13fa1.js": "/precache-manifest.ed17afd2347cda9baff0119928b13fa1.js",
  "service-worker.js": "/service-worker.js",
  "static/css/main.d566ab46.chunk.css.map": "/static/css/main.d566ab46.chunk.css.map"
}